{
	"enable_census": true,	// Enable access to Seyda Neen's census office
	"console_pidOnLogin":{	// runs console command on login
		"Set Stronghold to 6",	// Complete all strongholds
		"Set ColonyState to 35",	// Finish Raven Rock with estate
		"Set ColonyService to 5",	// Create smith at Raven Rock
		"Set ColonyService to 6",	// Create trader at Raven Rock
		"Set CharGen_ring_keley.state to 30",	// START disabling chargen
		"Set CharGenBed.done to 1",
		"Set CharGen_Bed.done to 1",
		"Set CharGenBoatNPC.state to 10",
		"Set CharGenBoatWomen.state to 10",
		"Set CharGenClassNPC.state to 31",
		"Set CharGenState to -1",
		"Set CharGenCustomsDoor.done to 1",
		"Set CharGenDialogueMessage.done to 1",
		"Set CharGenDoorEnterCaptain.done to 1",
		"Set CharGenDoorExit.done to 1",
		"Set CharGenDoorGuardTalker.done to 1",
		"Set \"CharGen Door Guard\".done to 1",
		"Set CharGenFatigueBarrel.done to 1",
		"Set \"CharGen barrel fatigue\".done to 1",
		"Set CharGenJournalMessage.done to 1",
		"Set CharGenDoorJournal.done to 1",
		"Set CharGenNameNPC.state to 41",
		"Set CharGenRaceNPC.state to 51",
		"Set \"CharGen dock guard\".state to 51",
		"Set CharGenStatsSheet.state to 20",
		"Set CharGenWalkNPC.state to 61",
		"Set \"CharGen boat guard 2\".state to 61",
		"Set \"chargendoorjournal\".done to 1",
		"Set \"CharGen Exit Door\".done to 1"	// STOP disabling chargen
	},
	"change_doorLock":{	// Sets specified doors to a certain lock level
		"Seyda Neen, Census and Excise Office":{	// Unlock census doors
			"172860-0": "0",	// door to tax office
			"119513-0": "0"	// door to outside/boat
		}
	},
	"disable_pickup":{
		"TR Andothren, Guild of Mages [i4-125]":{
			"msg": "This is a TR preview area, and items cannot be picked up here to prevent unfair gains.",
			"exclude": {"trtr_androthen_guide"}
		}
	},
	"quest":{
		"hh_stronghold":{	// auto-finish hlaalu stronghold quest
			"state": 5,
			"newstate": 300
		},
		"ht_stronghold":{	// auto-finish telvanni stronghold quest
			"state": 5,
			"newstate": 300
		},
		"hr_stronghold":{	// auto-finish redoran stronghold quest
			"state": 10,
			"newstate": 300
		}
	}
}
